0,2780.61
0,2739.98
0,2649.71
0,2592.13
0,2505.11
0,2464.57
0,2376.71
0,2291.56
0,2200.54
0,2139.11
0,2035.69
0,1768.45
0,1536.77
0,1473.88
0,1241.18
0,inf
50,inf
50,inf
50,1096.65
50,950.09
50,1104.50
50,1225.39
50,1265.18
50,1270.24
50,1271.19
50,1231.15
50,1206.47
50,1203.30
50,1225.49
50,1204.80
50,1182.15
50,1165.82
50,1157.25
50,1151.59
50,1160.59
50,1195.46
50,1184.41
50,1168.52
50,1160.88
50,1150.75
50,1170.46
50,1195.60
50,1177.39
50,1162.09
50,1155.22
50,1145.50
50,1139.90
50,1135.76
50,1153.69
50,1191.04
50,1177.93
50,1161.49
50,1142.86
100,1137.68
100,1132.61
100,1167.13
100,1201.39
100,1233.86
100,1284.96
100,1346.08
100,1411.73
100,1479.80
100,1568.26
100,1655.13
100,1734.76
100,1808.05
100,1858.74
100,1919.45
100,2000.07
100,2058.67
100,2140.03
100,2213.37
100,2296.12
100,2375.48
100,2440.71
100,2470.05
100,2510.15
100,2514.88
100,2513.51
100,2556.24
100,2562.24
100,2571.80
100,2579.20
100,2577.65
100,2598.41
100,2587.21
100,2628.01
100,2613.81
100,2619.06
100,2613.92
100,2618.03
100,2622.84
100,2633.08
100,2637.94
100,2636.20
100,2637.13
100,2646.09
100,2628.81
100,2623.18
100,2627.09
100,2628.35
100,2636.55
100,2628.81
100,2637.48
100,2627.43
100,2632.50
100,2636.90
100,2642.47
100,2627.89
100,2639.33
100,2620.55
100,2627.78
100,2627.43
100,2642.24
100,2637.25
100,2622.26
100,2627.09
100,2613.81
100,2632.04
100,2600.22
100,2606.32
100,2621.00
100,2619.63
100,2609.15
100,2613.35
100,2628.24
100,2627.20
100,2627.89
100,2637.94
100,2640.85
100,2645.62
100,2636.78
100,2650.29
100,2650.88
100,2636.78
100,2627.43
100,2628.01
100,2638.17
100,2648.42
100,2626.28
100,2627.32
100,2628.47
100,2651.23
100,2641.19
100,2646.20
100,2619.17
100,2618.49
100,2637.36
100,2636.55
100,2632.16
100,2640.96
100,2632.73
100,2628.12
100,2627.55
100,2617.69
100,2617.80
100,2605.52
100,2619.97
100,2610.06
100,2614.15
100,2615.97
100,2614.27
100,2604.96
150,2618.83
150,2627.89
150,2651.58
150,2655.22
150,2681.32
150,2732.86
150,2811.88
150,2840.51
150,2924.69
150,2992.22
150,3069.52
150,3154.91
150,3197.78
150,3263.88
150,3383.14
150,3440.76
150,3508.36
150,3609.89
150,3698.45
150,3783.34
150,3863.99
150,3963.80
150,3972.72
150,3992.02
150,3999.47
150,4054.05
150,4042.85
150,4045.58
150,4053.23
150,4055.70
150,4023.07
150,4034.97
150,4076.09
150,4079.14
150,4070.83
150,4090.54
150,4051.59
150,4094.17
150,4056.79
150,4048.86
150,4063.66
150,4034.43
150,4035.24
150,4068.90
150,4054.33
150,4075.81
150,4044.76
150,4022.80
150,4034.16
150,4055.97
150,4088.86
150,4045.85
150,4075.26
150,4056.25
150,4045.58
150,4063.11
150,4057.07
150,4055.70
150,4123.71
150,4051.04
150,4093.89
150,4134.22
150,4071.11
150,4075.81
150,4055.15
150,4079.14
150,4056.79
150,4067.25
150,4110.15
150,4068.90
150,4062.01
150,4089.42
150,4081.08
150,4081.91
150,4066.14
150,4082.74
150,4074.15
150,4057.07
150,4068.35
150,4055.42
150,4085.80
150,4062.84
150,4133.37
150,4077.47
150,4077.75
150,4100.32
150,4059.81
150,4081.08
150,4058.72
150,4067.80
150,4116.07
150,4105.09
150,4081.08
150,4055.97
150,4055.42
150,4089.14
150,4045.58
150,4056.52
150,4055.70
150,4073.32
150,4064.21
150,4064.49
150,4053.23
150,4086.64
150,4130.52
150,4046.13
150,4080.80
150,4050.77
150,4092.77
150,4072.77
150,4082.19
150,4066.97
150,4098.92
150,4062.01
150,4085.52
150,4055.97
150,4119.18
150,4061.74
150,4093.89
150,4066.97
150,4090.26
150,4059.27
150,4091.37
150,4113.53
150,4065.32
150,4068.35
150,4055.97
150,4077.75
150,4076.09
150,4099.20
150,4109.59
150,4085.80
150,4063.94
150,4089.98
150,4124.56
150,4133.37
150,4093.33
150,4067.25
150,4086.36
150,4065.04
150,4099.20
150,4109.59
150,4068.90
150,4094.72
150,4093.61
150,4101.44
150,4126.83
150,4102.56
150,4045.31
150,4107.34
200,4066.42
200,4121.16
200,4151.10
200,4137.08
200,4203.15
200,4217.04
200,4296.15
200,4344.99
200,4437.21
200,4493.04
200,4541.33
200,4600.17
200,4725.15
200,4815.80
200,4885.99
200,4943.56
200,5070.99
200,5145.36
200,5126.01
200,5279.83
200,5305.51
200,5327.65
200,5381.17
200,5441.68
200,5519.27
200,5509.64
200,5521.81
200,5535.57
200,5474.45
200,5545.29
200,5512.68
200,5594.41
200,5581.91
200,5611.67
200,5685.59
200,5617.98
200,5642.28
200,5634.86
200,5686.13
200,5617.98
200,5624.82
200,5700.71
200,5686.13
200,5679.67
200,5624.82
200,5633.80
200,5625.88
200,5616.40
200,5643.87
200,5680.74
200,5645.46
200,5682.89
200,5685.59
200,5635.92
200,5684.51
200,5638.57
200,5642.28
200,5634.86
200,5690.44
200,5621.14
200,5691.52
200,5639.10
200,5690.98
200,5640.69
200,5648.65
200,5616.93
200,5688.82
200,5679.13
200,5627.46
200,5682.36
200,5678.59
200,5688.28
200,5663.05
200,5567.41
200,5680.74
200,5687.74
200,5685.05
200,5687.20
200,5680.20
200,5578.80
200,5619.56
200,5664.12
200,5640.16
200,5627.46
200,5624.82
200,5680.20
200,5687.74
200,5616.40
200,5623.24
200,5619.03
200,5579.32
200,5634.33
200,5668.93
200,5679.67
200,5690.98
200,5554.01
200,5626.41
200,5639.10
200,5644.93
200,5679.13
200,5678.59
200,5691.52
200,5658.78
200,5687.20
200,5678.59
200,5605.38
200,5679.13
200,5687.20
200,5687.74
200,5637.51
200,5664.12
200,5678.05
200,5602.76
200,5620.61
200,5629.05
200,5638.57
200,5664.65
200,5636.45
200,5647.59
200,5678.59
200,5687.74
200,5620.08
200,5729.02
200,5679.67
200,5686.66
200,5677.52
200,5688.82
200,5681.28
200,5627.46
200,5662.51
200,5686.13
200,5678.59
200,5677.52
200,5627.99
200,5619.03
200,5625.35
200,5683.43
200,5688.82
200,5679.67
200,5685.05
200,5576.21
200,5604.86
200,5679.67
200,5731.21
200,5599.63
200,5690.98
200,5664.12
200,5686.66
200,5613.77
200,5602.24
200,5656.11
200,5671.61
200,5576.73
200,5689.90
200,5597.54
200,5686.13
200,5633.80
250,5619.03
250,5663.58
250,5683.97
250,5778.68
250,5785.36
250,5719.19
250,5881.20
250,5874.29
250,6022.89
250,6097.56
250,6121.20
250,6246.75
250,6428.80
250,6434.32
250,6492.80
250,6654.10
250,6660.01
250,6932.41
250,6816.63
250,7016.72
250,6969.45
250,7032.35
250,6984.87
250,7096.39
250,7061.32
250,7136.91
250,7136.91
250,7067.97
250,7164.18
250,7104.80
250,7240.26
250,7125.89
250,7195.11
250,6995.45
250,7137.76
250,7136.06
250,7129.28
250,6964.60
250,7097.23
250,7009.35
250,7143.71
250,7125.89
250,7124.20
250,7125.04
250,7195.11
250,7171.89
250,7132.67
250,7199.42
250,7256.02
250,7030.70
250,7072.97
250,7142.01
250,7207.21
250,7131.82
250,7029.05
250,7110.69
250,7143.71
250,7124.20
250,7164.18
250,7004.44
250,7113.22
250,7204.61
250,7131.82
250,7057.99
250,7057.99
250,7043.08
250,7212.41
250,7136.91
250,7124.20
250,7125.89
250,7125.04
250,7067.97
250,7137.76
250,7124.20
250,7090.52
250,7058.82
250,7203.75
250,7136.06
250,7125.89
250,7130.12
250,7127.58
250,7040.60
250,7077.98
250,7032.35
250,7099.75
250,7137.76
250,7137.76
250,7136.91
250,7125.04
250,7126.74
250,7142.86
250,7136.06
250,7124.20
250,7124.20
250,7125.04
250,7136.91
250,7142.86
250,7125.04
250,7130.12
250,7124.20
250,7136.91
250,7137.76
250,7129.28
250,7124.20
250,7125.04
250,7136.91
250,7137.76
250,7125.04
250,7124.20
250,7141.16
250,7142.86
250,7125.04
250,7125.89
250,7066.31
250,7131.82
250,7141.16
250,7061.32
250,7130.12
250,7034.00
250,7047.22
250,7048.04
250,7067.97
250,7124.20
250,7223.69
250,7207.21
250,7136.91
250,7136.91
250,7127.58
250,7057.16
250,7136.06
250,7043.91
250,6989.75
250,7130.12
250,7126.74
250,7136.06
250,7072.97
250,7124.20
250,7130.12
250,7141.16
250,7136.06
250,7124.20
250,7122.51
250,7130.97
250,7136.91
250,7037.30
250,7125.89
250,7124.20
250,7136.06
250,7134.36
250,7082.15
250,7067.14
250,7125.04
250,7142.01
250,7142.01
250,7125.04
250,7125.04
250,7170.17
250,7237.64
250,7070.47
250,7124.20
250,7125.89
250,7094.71
250,7114.91
250,7141.16
250,7124.20
250,7130.12
250,7137.76
250,7136.91
